Comparison of Inpatient Psychiatric Care by State - Caroline Lamar
…
# groupby state
summarydata %>% group_by(State) %>% select(State, 8:14) %>% 
    summarize_at(vars(Pts.DC.on.antipsychotics:Overall.Hrs.in.Seclusion), 
        c(Mean = mean, Sd = sd, Var = var, n.distinct = n_distinct, 
            list(min = min, max = max)), na.rm = T) %>% 
    pivot_longer(contains("_")) %>% separate(name, 
    into = c("Variable", "test"), sep = "_") %>% pivot_wider(names_from = "test", 
    values_from = "value") %>% arrange(-desc(State))

## # A tibble: 364 x 8
##    State Variable                   Mean    Sd    Var n.distinct   min   max
##    <fct> <chr>                     <dbl> <dbl>  <dbl>      <dbl> <dbl> <dbl>
##  1 AK    Pts.DC.on.antipsychotics  140.   23.1   533.          2  113   153 
##  2 AK    alc.drug.tx.offered       198   218.  47404           3   18   440 
##  3 AK    tobacco.tx.offered        210.  199.  39792.          3   33   426 
##  4 AK    recieved.followup.care    218.  164.  26985.          3   29   329 
##  5 AK    pts.readmitted            396.  264.  69896.          3  164   684 
##  6 AK    Overall.Hrs.in.Restraints 184.    0       0           1  184.  184.
##  7 AK    Overall.Hrs.in.Seclusion  712.    0       0           1  712.  712.
##  8 AL    Pts.DC.on.antipsychotics   96.6  48.3  2329.         24    6   153 
##  9 AL    alc.drug.tx.offered       265.  176.  30866.         26   12   463 
## 10 AL    tobacco.tx.offered        226.  150.  22356.         33   14   466 
## # … with 354 more rows
…
